C:\Users\Alexis\Documents\NetBeansProjects\practicaTerreno\src\main\java\com\mycompany\practicaterreno\PracticaTerreno.java
C:\Users\Alexis\Documents\NetBeansProjects\practicaTerreno\src\main\java\Terreno.java
C:\Users\Alexis\Documents\NetBeansProjects\practicaTerreno\src\main\java\com\mycompany\practicaterreno\Terreno.java
